{
    "$schema": "http://json-schema.org/draft-06/schema#",
    "$id": "https://gitlab.inria.fr/rules/view-parser.schema.json",
    "title": "Format for the view definition format",
    "description": "A list of views associating datasources to relational views",
    "type": "object",
    "properties": {
        "datasources": {
            "description": "List of all the datasources defined by this document",
            "type": "array",
            "items": {
                "type": "object",
                "properties": {
                    "id": {
                        "description": "ID of the datasource",
                        "type": "string"
                    },
                    "protocol": {
                        "description": "Protocol used to communicate with the datasource",
                        "type": "string"
                    },
                    "parameters": {
                        "description": "Connection parameters of the datasource",
                        "type": "object"
                    }
                },
                "required": [
                    "id",
                    "protocol"
                ]
            },
            "minItems": 1
        },
        "views": {
            "description": "List of all the views defined by this document",
            "type": "array",
            "items": {
                "type": "object",
                "properties": {
                    "id": {
                        "description": "ID of the view (name of the relational view)",
                        "type": "string"
                    },
                    "datasource": {
                        "description": "Reference to the ID of the datasource concerned by this view",
                        "type": "string"
                    },
                    "query": {
                        "description": "Query of the view",
                        "type": "string"
                    },
                    "queryFile": {
                        "description": "Path of a file which contains the query of the view",
                        "type": "string"
                    },
                    "position": {
                        "description": "JsonPath query to position in the document",
                        "type": "string"
                    },
                    "signature": {
                        "description": "Signature of the view",
                        "type": "array",
                        "items": {
                            "type": "object",
                            "properties": {
                                "mandatory": {
                                    "description": "Name of the mandatory parameter in the view query",
                                    "type": "string"
                                },
                                "ifMissing": {
                                    "description": "Handling of missing values",
                                    "type": "string"
                                },
                                "selection": {
                                    "description": "In case of a JSON result, a JsonPath query to select a value in the document",
                                    "type": "string"
                                }
                            }
                        },
                        "minItems": 1
                    }
                },
                "required": [
                    "id",
                    "datasource",
                    "signature"
                ]
            },
            "minItems": 1
        }
    },
    "required": [
        "datasources",
        "views"
    ]
}
